Rozdział 2 - Podstawy pracy z R
…
auta %>%
  summarise(sredniaCena = mean(Cena),
            medianaPrzebiegu = median(Przebieg),
            sredniWiek = mean(2013 - Produkcja),
            liczba = n())

##   sredniaCena medianaPrzebiegu sredniWiek liczba
## 1    33340.38           122000   6.638333   2400

auta %>%
  select(Marka, Cena, Przebieg, Model) %>%
  group_by(Marka) %>%
  mutate(Przebieg = Przebieg/mean(Przebieg, na.rm=TRUE)) 

## Source: local data frame [2,400 x 4]
## Groups: Marka [6]
## 
##      Marka  Cena  Przebieg  Model
##     <fctr> <dbl>     <dbl> <fctr>
## 1  Peugeot  8799 0.6712017    206
## 2  Peugeot 15500 0.9001999    206
## 3  Peugeot 11900 1.6977455    206
## 4  Peugeot 10999 1.3029209    206
## 5  Peugeot 11900 1.1528876    206
## 6  Peugeot 19900 0.6822568    206
## 7  Peugeot 16400 1.1844736    206
## 8  Peugeot 13900 1.0344403    206
## 9  Peugeot 13900 1.2555420    206
## 10 Peugeot 18400 0.4501000    206
## # ... with 2,390 more rows
…
